lab-8-student
…
  if (length(x[!is.na(x)]) <= 1) {
    stop("Input must contain more than one non-NA value.")
  }
  
  rng <- range(x, na.rm = TRUE)
  (x - rng[1]) / (rng[2] - rng[1])
}

 fish |>
  mutate(length = rescale_01(length),
         weight = rescale_01(weight))

# A tibble: 18,352 × 7
    trip  mark length  weight  year section  species
   <dbl> <dbl>  <dbl>   <dbl> <dbl> <chr>    <chr>  
 1     1     0  0.280 0.0374   1989 Johnsrud RBT    
 2     1     0  0.280 0.0406   1989 Johnsrud RBT    
 3     1     0  0.277 0.0524   1989 Johnsrud RBT    
 4     1     0  0.315 0.0588   1989 Johnsrud RBT    
 5     1     0  0.305 0.0641   1989 Johnsrud RBT    
 6     1     0  0.358 0.0812   1989 Johnsrud RBT    
 7     1     0  0.261 0.0363   1989 Johnsrud RBT    
 8     1     0  0.148 0.00855  1989 Johnsrud RBT    
 9     1     0  0.203 0.0171   1989 Johnsrud RBT    
10     1     0  0.145 0.00748  1989 Johnsrud RBT    
# ℹ 18,342 more rows
…
